graph G {
0;
1;
2;
3;
4;
5;
6;
7;
8;
9;
10;
11;
12;
13;
14;
15;
16;
17;
18;
19;
20;
21;
22;
23;
24;
25;
26;
27;
28;
29;
30;
31;
32;
33;
34;
35;
36;
37;
38;
39;
40;
41;
42;
43;
44;
45;
46;
47;
48;
49;
50;
51;
52;
53;
54;
55;
56;
57;
58;
59;
60;
61;
62;
63;
64;
65;
66;
67;
68;
69;
70;
71;
72;
73;
74;
75;
76;
77;
78;
79;
80;
81;
82;
83;
84;
85;
86;
87;
88;
89;
90;
91;
92;
93;
94;
95;
96;
97;
98;
99;
100;
101;
102;
103;
104;
105;
106;
107;
108;
109;
110;
111;
112;
113;
114;
115;
116;
117;
118;
119;
120;
121;
122;
123;
124;
125;
126;
127;
128;
129;
130;
131;
132;
133;
134;
135;
136;
137;
138;
139;
140;
141;
142;
143;
144;
145;
146;
147;
148;
149;
150;
151;
152;
153;
154;
155;
156;
157;
158;
159;
160;
161;
162;
163;
164;
165;
166;
167;
168;
169;
170;
171;
172;
173;
174;
175;
176;
177;
178;
179;
180;
181;
182;
183;
184;
185;
186;
187;
188;
189;
190;
191;
192;
193;
194;
195;
196;
197;
198;
199;
1--0;
2--0;
2--1;
3--0;
3--1;
3--2;
4--0;
4--1;
4--2;
4--3;
5--0;
5--1;
5--2;
5--3;
5--4;
6--0;
6--1;
6--2;
6--3;
6--4;
6--5;
7--0;
7--1;
7--2;
7--3;
7--4;
7--5;
7--6;
8--0;
8--1;
8--2;
8--3;
8--4;
8--5;
8--6;
8--7;
9--0;
9--1;
9--2;
9--3;
9--4;
9--5;
9--6;
9--7;
9--8;
10--0;
10--1;
10--2;
10--3;
10--4;
10--5;
10--6;
10--7;
10--8;
10--9;
11--0;
11--1;
11--2;
11--3;
11--4;
11--5;
11--6;
11--7;
11--8;
11--9;
11--10;
12--0;
12--1;
12--2;
12--3;
12--4;
12--5;
12--6;
12--7;
12--8;
12--9;
12--10;
12--11;
13--0;
13--1;
13--2;
13--3;
13--4;
13--5;
13--6;
13--7;
13--8;
13--9;
13--10;
13--11;
13--12;
14--0;
14--1;
14--2;
14--3;
14--4;
14--5;
14--6;
14--7;
14--8;
14--9;
14--10;
14--11;
14--12;
14--13;
15--0;
15--1;
15--2;
15--3;
15--4;
15--5;
15--6;
15--7;
15--8;
15--9;
15--10;
15--11;
15--12;
15--13;
15--14;
16--0;
16--1;
16--2;
16--3;
16--4;
16--5;
16--6;
16--7;
16--8;
16--9;
16--10;
16--11;
16--12;
16--13;
16--14;
16--15;
17--0;
17--1;
17--2;
17--3;
17--4;
17--5;
17--6;
17--7;
17--8;
17--9;
17--10;
17--11;
17--12;
17--13;
17--14;
17--15;
17--16;
18--0;
18--1;
18--2;
18--3;
18--4;
18--5;
18--6;
18--7;
18--8;
18--9;
18--10;
18--11;
18--12;
18--13;
18--14;
18--15;
18--16;
18--17;
19--0;
19--1;
19--2;
19--3;
19--4;
19--5;
19--6;
19--7;
19--8;
19--9;
19--10;
19--11;
19--12;
19--13;
19--14;
19--15;
19--16;
19--17;
19--18;
20--0;
20--1;
20--2;
20--3;
20--4;
20--5;
20--6;
20--7;
20--8;
20--9;
20--10;
20--11;
20--12;
20--13;
20--14;
20--15;
20--16;
20--17;
20--18;
20--19;
21--0;
21--1;
21--2;
21--3;
21--4;
21--5;
21--6;
21--7;
21--8;
21--9;
21--10;
21--11;
21--12;
21--13;
21--14;
21--15;
21--16;
21--17;
21--18;
21--19;
21--20;
22--0;
22--1;
22--2;
22--3;
22--4;
22--5;
22--6;
22--7;
22--8;
22--9;
22--10;
22--11;
22--12;
22--13;
22--14;
22--15;
22--16;
22--17;
22--18;
22--19;
22--20;
22--21;
23--0;
23--1;
23--2;
23--3;
23--4;
23--5;
23--6;
23--7;
23--8;
23--9;
23--10;
23--11;
23--12;
23--13;
23--14;
23--15;
23--16;
23--17;
23--18;
23--19;
23--20;
23--21;
23--22;
24--0;
24--1;
24--2;
24--3;
24--4;
24--5;
24--6;
24--7;
24--8;
24--9;
24--10;
24--11;
24--12;
24--13;
24--14;
24--15;
24--16;
24--17;
24--18;
24--19;
24--20;
24--21;
24--22;
24--23;
25--0;
25--1;
25--2;
25--3;
25--4;
25--5;
25--6;
25--7;
25--8;
25--9;
25--10;
25--11;
25--12;
25--13;
25--14;
25--15;
25--16;
25--17;
25--18;
25--19;
25--20;
25--21;
25--22;
25--23;
25--24;
26--0;
26--1;
26--2;
26--3;
26--4;
26--5;
26--6;
26--7;
26--8;
26--9;
26--10;
26--11;
26--12;
26--13;
26--14;
26--15;
26--16;
26--17;
26--18;
26--19;
26--20;
26--21;
26--22;
26--23;
26--24;
26--25;
27--0;
27--1;
27--2;
27--3;
27--4;
27--5;
27--6;
27--7;
27--8;
27--9;
27--10;
27--11;
27--12;
27--13;
27--14;
27--15;
27--16;
27--17;
27--18;
27--19;
27--20;
27--21;
27--22;
27--23;
27--24;
27--25;
27--26;
28--0;
28--1;
28--2;
28--3;
28--4;
28--5;
28--6;
28--7;
28--8;
28--9;
28--10;
28--11;
28--12;
28--13;
28--14;
28--15;
28--16;
28--17;
28--18;
28--19;
28--20;
28--21;
28--22;
28--23;
28--24;
28--25;
28--26;
28--27;
29--0;
29--1;
29--2;
29--3;
29--4;
29--5;
29--6;
29--7;
29--8;
29--9;
29--10;
29--11;
29--12;
29--13;
29--14;
29--15;
29--16;
29--17;
29--18;
29--19;
29--20;
29--21;
29--22;
29--23;
29--24;
29--25;
29--26;
29--27;
29--28;
30--0;
30--1;
30--2;
30--3;
30--4;
30--5;
30--6;
30--7;
30--8;
30--9;
30--10;
30--11;
30--12;
30--13;
30--14;
30--15;
30--16;
30--17;
30--18;
30--19;
30--20;
30--21;
30--22;
30--23;
30--24;
30--25;
30--26;
30--27;
30--28;
30--29;
31--0;
31--1;
31--2;
31--3;
31--4;
31--5;
31--6;
31--7;
31--8;
31--9;
31--10;
31--11;
31--12;
31--13;
31--14;
31--15;
31--16;
31--17;
31--18;
31--19;
31--20;
31--21;
31--22;
31--23;
31--24;
31--25;
31--26;
31--27;
31--28;
31--29;
31--30;
32--0;
32--1;
32--2;
32--3;
32--4;
32--5;
32--6;
32--7;
32--8;
32--9;
32--10;
32--11;
32--12;
32--13;
32--14;
32--15;
32--16;
32--17;
32--18;
32--19;
32--20;
32--21;
32--22;
32--23;
32--24;
32--25;
32--26;
32--27;
32--28;
32--29;
32--30;
32--31;
33--0;
33--1;
33--2;
33--3;
33--4;
33--5;
33--6;
33--7;
33--8;
33--9;
33--10;
33--11;
33--12;
33--13;
33--14;
33--15;
33--16;
33--17;
33--18;
33--19;
33--20;
33--21;
33--22;
33--23;
33--24;
33--25;
33--26;
33--27;
33--28;
33--29;
33--30;
33--31;
33--32;
34--0;
34--1;
34--2;
34--3;
34--4;
34--5;
34--6;
34--7;
34--8;
34--9;
34--10;
34--11;
34--12;
34--13;
34--14;
34--15;
34--16;
34--17;
34--18;
34--19;
34--20;
34--21;
34--22;
34--23;
34--24;
34--25;
34--26;
34--27;
34--28;
34--29;
34--30;
34--31;
34--32;
34--33;
35--0;
35--1;
35--2;
35--3;
35--4;
35--5;
35--6;
35--7;
35--8;
35--9;
35--10;
35--11;
35--12;
35--13;
35--14;
35--15;
35--16;
35--17;
35--18;
35--19;
35--20;
35--21;
35--22;
35--23;
35--24;
35--25;
35--26;
35--27;
35--28;
35--29;
35--30;
35--31;
35--32;
35--33;
35--34;
36--0;
36--1;
36--2;
36--3;
36--4;
36--5;
36--6;
36--7;
36--8;
36--9;
36--10;
36--11;
36--12;
36--13;
36--14;
36--15;
36--16;
36--17;
36--18;
36--19;
36--20;
36--21;
36--22;
36--23;
36--24;
36--25;
36--26;
36--27;
36--28;
36--29;
36--30;
36--31;
36--32;
36--33;
36--34;
36--35;
37--0;
37--1;
37--2;
37--3;
37--4;
37--5;
37--6;
37--7;
37--8;
37--9;
37--10;
37--11;
37--12;
37--13;
37--14;
37--15;
37--16;
37--17;
37--18;
37--19;
37--20;
37--21;
37--22;
37--23;
37--24;
37--25;
37--26;
37--27;
37--28;
37--29;
37--30;
37--31;
37--32;
37--33;
37--34;
37--35;
37--36;
38--0;
38--1;
38--2;
38--3;
38--4;
38--5;
38--6;
38--7;
38--8;
38--9;
38--10;
38--11;
38--12;
38--13;
38--14;
38--15;
38--16;
38--17;
38--18;
38--19;
38--20;
38--21;
38--22;
38--23;
38--24;
38--25;
38--26;
38--27;
38--28;
38--29;
38--30;
38--31;
38--32;
38--33;
38--34;
38--35;
38--36;
38--37;
39--0;
39--1;
39--2;
39--3;
39--4;
39--5;
39--6;
39--7;
39--8;
39--9;
39--10;
39--11;
39--12;
39--13;
39--14;
39--15;
39--16;
39--17;
39--18;
39--19;
39--20;
39--21;
39--22;
39--23;
39--24;
39--25;
39--26;
39--27;
39--28;
39--29;
39--30;
39--31;
39--32;
39--33;
39--34;
39--35;
39--36;
39--37;
39--38;
40--0;
40--1;
40--2;
40--3;
40--4;
40--5;
40--6;
40--7;
40--8;
40--9;
40--10;
40--11;
40--12;
40--13;
40--14;
40--15;
40--16;
40--17;
40--18;
40--19;
40--20;
40--21;
40--22;
40--23;
40--24;
40--25;
40--26;
40--27;
40--28;
40--29;
40--30;
40--31;
40--32;
40--33;
40--34;
40--35;
40--36;
40--37;
40--38;
40--39;
41--0;
41--1;
41--2;
41--3;
41--4;
41--5;
41--6;
41--7;
41--8;
41--9;
41--10;
41--11;
41--12;
41--13;
41--14;
41--15;
41--16;
41--17;
41--18;
41--19;
41--20;
41--21;
41--22;
41--23;
41--24;
41--25;
41--26;
41--27;
41--28;
41--29;
41--30;
41--31;
41--32;
41--33;
41--34;
41--35;
41--36;
41--37;
41--38;
41--39;
41--40;
42--0;
42--1;
42--2;
42--3;
42--4;
42--5;
42--6;
42--7;
42--8;
42--9;
42--10;
42--11;
42--12;
42--13;
42--14;
42--15;
42--16;
42--17;
42--18;
42--19;
42--20;
42--21;
42--22;
42--23;
42--24;
42--25;
42--26;
42--27;
42--28;
42--29;
42--30;
42--31;
42--32;
42--33;
42--34;
42--35;
42--36;
42--37;
42--38;
42--39;
42--40;
42--41;
43--0;
43--1;
43--2;
43--3;
43--4;
43--5;
43--6;
43--7;
43--8;
43--9;
43--10;
43--11;
43--12;
43--13;
43--14;
43--15;
43--16;
43--17;
43--18;
43--19;
43--20;
43--21;
43--22;
43--23;
43--24;
43--25;
43--26;
43--27;
43--28;
43--29;
43--30;
43--31;
43--32;
43--33;
43--34;
43--35;
43--36;
43--37;
43--38;
43--39;
43--40;
43--41;
43--42;
44--0;
44--1;
44--2;
44--3;
44--4;
44--5;
44--6;
44--7;
44--8;
44--9;
44--10;
44--11;
44--12;
44--13;
44--14;
44--15;
44--16;
44--17;
44--18;
44--19;
44--20;
44--21;
44--22;
44--23;
44--24;
44--25;
44--26;
44--27;
44--28;
44--29;
44--30;
44--31;
44--32;
44--33;
44--34;
44--35;
44--36;
44--37;
44--38;
44--39;
44--40;
44--41;
44--42;
44--43;
45--0;
45--1;
45--2;
45--3;
45--4;
45--5;
45--6;
45--7;
45--8;
45--9;
45--10;
45--11;
45--12;
45--13;
45--14;
45--15;
45--16;
45--17;
45--18;
45--19;
45--20;
45--21;
45--22;
45--23;
45--24;
45--25;
45--26;
45--27;
45--28;
45--29;
45--30;
45--31;
45--32;
45--33;
45--34;
45--35;
45--36;
45--37;
45--38;
45--39;
45--40;
45--41;
45--42;
45--43;
45--44;
46--0;
46--1;
46--2;
46--3;
46--4;
46--5;
46--6;
46--7;
46--8;
46--9;
46--10;
46--11;
46--12;
46--13;
46--14;
46--15;
46--16;
46--17;
46--18;
46--19;
46--20;
46--21;
46--22;
46--23;
46--24;
46--25;
46--26;
46--27;
46--28;
46--29;
46--30;
46--31;
46--32;
46--33;
46--34;
46--35;
46--36;
46--37;
46--38;
46--39;
46--40;
46--41;
46--42;
46--43;
46--44;
46--45;
47--0;
47--1;
47--2;
47--3;
47--4;
47--5;
47--6;
47--7;
47--8;
47--9;
47--10;
47--11;
47--12;
47--13;
47--14;
47--15;
47--16;
47--17;
47--18;
47--19;
47--20;
47--21;
47--22;
47--23;
47--24;
47--25;
47--26;
47--27;
47--28;
47--29;
47--30;
47--31;
47--32;
47--33;
47--34;
47--35;
47--36;
47--37;
47--38;
47--39;
47--40;
47--41;
47--42;
47--43;
47--44;
47--45;
47--46;
48--0;
48--1;
48--2;
48--3;
48--4;
48--5;
48--6;
48--7;
48--8;
48--9;
48--10;
48--11;
48--12;
48--13;
48--14;
48--15;
48--16;
48--17;
48--18;
48--19;
48--20;
48--21;
48--22;
48--23;
48--24;
48--25;
48--26;
48--27;
48--28;
48--29;
48--30;
48--31;
48--32;
48--33;
48--34;
48--35;
48--36;
48--37;
48--38;
48--39;
48--40;
48--41;
48--42;
48--43;
48--44;
48--45;
48--46;
48--47;
49--0;
49--1;
49--2;
49--3;
49--4;
49--5;
49--6;
49--7;
49--8;
49--9;
49--10;
49--11;
49--12;
49--13;
49--14;
49--15;
49--16;
49--17;
49--18;
49--19;
49--20;
49--21;
49--22;
49--23;
49--24;
49--25;
49--26;
49--27;
49--28;
49--29;
49--30;
49--31;
49--32;
49--33;
49--34;
49--35;
49--36;
49--37;
49--38;
49--39;
49--40;
49--41;
49--42;
49--43;
49--44;
49--45;
49--46;
49--47;
49--48;
50--0;
50--1;
50--2;
50--3;
50--4;
50--5;
50--6;
50--7;
50--8;
50--9;
50--10;
50--11;
50--12;
50--13;
50--14;
50--15;
50--16;
50--17;
50--18;
50--19;
50--20;
50--21;
50--22;
50--23;
50--24;
50--25;
50--26;
50--27;
50--28;
50--29;
50--30;
50--31;
50--32;
50--33;
50--34;
50--35;
50--36;
50--37;
50--38;
50--39;
50--40;
50--41;
50--42;
50--43;
50--44;
50--45;
50--46;
50--47;
50--48;
50--49;
52--51;
53--51;
53--52;
54--51;
54--52;
54--53;
55--51;
55--52;
55--53;
55--54;
56--51;
56--52;
56--53;
56--54;
56--55;
57--51;
57--52;
57--53;
57--54;
57--55;
57--56;
58--51;
58--52;
58--53;
58--54;
58--55;
58--56;
58--57;
59--51;
59--52;
59--53;
59--54;
59--55;
59--56;
59--57;
59--58;
60--51;
60--52;
60--53;
60--54;
60--55;
60--56;
60--57;
60--58;
60--59;
61--51;
61--52;
61--53;
61--54;
61--55;
61--56;
61--57;
61--58;
61--59;
61--60;
62--51;
62--52;
62--53;
62--54;
62--55;
62--56;
62--57;
62--58;
62--59;
62--60;
62--61;
63--51;
63--52;
63--53;
63--54;
63--55;
63--56;
63--57;
63--58;
63--59;
63--60;
63--61;
63--62;
64--51;
64--52;
64--53;
64--54;
64--55;
64--56;
64--57;
64--58;
64--59;
64--60;
64--61;
64--62;
64--63;
65--51;
65--52;
65--53;
65--54;
65--55;
65--56;
65--57;
65--58;
65--59;
65--60;
65--61;
65--62;
65--63;
65--64;
66--51;
66--52;
66--53;
66--54;
66--55;
66--56;
66--57;
66--58;
66--59;
66--60;
66--61;
66--62;
66--63;
66--64;
66--65;
67--51;
67--52;
67--53;
67--54;
67--55;
67--56;
67--57;
67--58;
67--59;
67--60;
67--61;
67--62;
67--63;
67--64;
67--65;
67--66;
68--51;
68--52;
68--53;
68--54;
68--55;
68--56;
68--57;
68--58;
68--59;
68--60;
68--61;
68--62;
68--63;
68--64;
68--65;
68--66;
68--67;
69--51;
69--52;
69--53;
69--54;
69--55;
69--56;
69--57;
69--58;
69--59;
69--60;
69--61;
69--62;
69--63;
69--64;
69--65;
69--66;
69--67;
69--68;
70--51;
70--52;
70--53;
70--54;
70--55;
70--56;
70--57;
70--58;
70--59;
70--60;
70--61;
70--62;
70--63;
70--64;
70--65;
70--66;
70--67;
70--68;
70--69;
71--51;
71--52;
71--53;
71--54;
71--55;
71--56;
71--57;
71--58;
71--59;
71--60;
71--61;
71--62;
71--63;
71--64;
71--65;
71--66;
71--67;
71--68;
71--69;
71--70;
72--51;
72--52;
72--53;
72--54;
72--55;
72--56;
72--57;
72--58;
72--59;
72--60;
72--61;
72--62;
72--63;
72--64;
72--65;
72--66;
72--67;
72--68;
72--69;
72--70;
72--71;
73--51;
73--52;
73--53;
73--54;
73--55;
73--56;
73--57;
73--58;
73--59;
73--60;
73--61;
73--62;
73--63;
73--64;
73--65;
73--66;
73--67;
73--68;
73--69;
73--70;
73--71;
73--72;
74--51;
74--52;
74--53;
74--54;
74--55;
74--56;
74--57;
74--58;
74--59;
74--60;
74--61;
74--62;
74--63;
74--64;
74--65;
74--66;
74--67;
74--68;
74--69;
74--70;
74--71;
74--72;
74--73;
75--51;
75--52;
75--53;
75--54;
75--55;
75--56;
75--57;
75--58;
75--59;
75--60;
75--61;
75--62;
75--63;
75--64;
75--65;
75--66;
75--67;
75--68;
75--69;
75--70;
75--71;
75--72;
75--73;
75--74;
76--51;
76--52;
76--53;
76--54;
76--55;
76--56;
76--57;
76--58;
76--59;
76--60;
76--61;
76--62;
76--63;
76--64;
76--65;
76--66;
76--67;
76--68;
76--69;
76--70;
76--71;
76--72;
76--73;
76--74;
76--75;
77--51;
77--52;
77--53;
77--54;
77--55;
77--56;
77--57;
77--58;
77--59;
77--60;
77--61;
77--62;
77--63;
77--64;
77--65;
77--66;
77--67;
77--68;
77--69;
77--70;
77--71;
77--72;
77--73;
77--74;
77--75;
77--76;
78--51;
78--52;
78--53;
78--54;
78--55;
78--56;
78--57;
78--58;
78--59;
78--60;
78--61;
78--62;
78--63;
78--64;
78--65;
78--66;
78--67;
78--68;
78--69;
78--70;
78--71;
78--72;
78--73;
78--74;
78--75;
78--76;
78--77;
79--51;
79--52;
79--53;
79--54;
79--55;
79--56;
79--57;
79--58;
79--59;
79--60;
79--61;
79--62;
79--63;
79--64;
79--65;
79--66;
79--67;
79--68;
79--69;
79--70;
79--71;
79--72;
79--73;
79--74;
79--75;
79--76;
79--77;
79--78;
80--51;
80--52;
80--53;
80--54;
80--55;
80--56;
80--57;
80--58;
80--59;
80--60;
80--61;
80--62;
80--63;
80--64;
80--65;
80--66;
80--67;
80--68;
80--69;
80--70;
80--71;
80--72;
80--73;
80--74;
80--75;
80--76;
80--77;
80--78;
80--79;
81--51;
81--52;
81--53;
81--54;
81--55;
81--56;
81--57;
81--58;
81--59;
81--60;
81--61;
81--62;
81--63;
81--64;
81--65;
81--66;
81--67;
81--68;
81--69;
81--70;
81--71;
81--72;
81--73;
81--74;
81--75;
81--76;
81--77;
81--78;
81--79;
81--80;
82--51;
82--52;
82--53;
82--54;
82--55;
82--56;
82--57;
82--58;
82--59;
82--60;
82--61;
82--62;
82--63;
82--64;
82--65;
82--66;
82--67;
82--68;
82--69;
82--70;
82--71;
82--72;
82--73;
82--74;
82--75;
82--76;
82--77;
82--78;
82--79;
82--80;
82--81;
83--51;
83--52;
83--53;
83--54;
83--55;
83--56;
83--57;
83--58;
83--59;
83--60;
83--61;
83--62;
83--63;
83--64;
83--65;
83--66;
83--67;
83--68;
83--69;
83--70;
83--71;
83--72;
83--73;
83--74;
83--75;
83--76;
83--77;
83--78;
83--79;
83--80;
83--81;
83--82;
84--51;
84--52;
84--53;
84--54;
84--55;
84--56;
84--57;
84--58;
84--59;
84--60;
84--61;
84--62;
84--63;
84--64;
84--65;
84--66;
84--67;
84--68;
84--69;
84--70;
84--71;
84--72;
84--73;
84--74;
84--75;
84--76;
84--77;
84--78;
84--79;
84--80;
84--81;
84--82;
84--83;
85--51;
85--52;
85--53;
85--54;
85--55;
85--56;
85--57;
85--58;
85--59;
85--60;
85--61;
85--62;
85--63;
85--64;
85--65;
85--66;
85--67;
85--68;
85--69;
85--70;
85--71;
85--72;
85--73;
85--74;
85--75;
85--76;
85--77;
85--78;
85--79;
85--80;
85--81;
85--82;
85--83;
85--84;
86--51;
86--52;
86--53;
86--54;
86--55;
86--56;
86--57;
86--58;
86--59;
86--60;
86--61;
86--62;
86--63;
86--64;
86--65;
86--66;
86--67;
86--68;
86--69;
86--70;
86--71;
86--72;
86--73;
86--74;
86--75;
86--76;
86--77;
86--78;
86--79;
86--80;
86--81;
86--82;
86--83;
86--84;
86--85;
87--51;
87--52;
87--53;
87--54;
87--55;
87--56;
87--57;
87--58;
87--59;
87--60;
87--61;
87--62;
87--63;
87--64;
87--65;
87--66;
87--67;
87--68;
87--69;
87--70;
87--71;
87--72;
87--73;
87--74;
87--75;
87--76;
87--77;
87--78;
87--79;
87--80;
87--81;
87--82;
87--83;
87--84;
87--85;
87--86;
88--51;
88--52;
88--53;
88--54;
88--55;
88--56;
88--57;
88--58;
88--59;
88--60;
88--61;
88--62;
88--63;
88--64;
88--65;
88--66;
88--67;
88--68;
88--69;
88--70;
88--71;
88--72;
88--73;
88--74;
88--75;
88--76;
88--77;
88--78;
88--79;
88--80;
88--81;
88--82;
88--83;
88--84;
88--85;
88--86;
88--87;
89--51;
89--52;
89--53;
89--54;
89--55;
89--56;
89--57;
89--58;
89--59;
89--60;
89--61;
89--62;
89--63;
89--64;
89--65;
89--66;
89--67;
89--68;
89--69;
89--70;
89--71;
89--72;
89--73;
89--74;
89--75;
89--76;
89--77;
89--78;
89--79;
89--80;
89--81;
89--82;
89--83;
89--84;
89--85;
89--86;
89--87;
89--88;
90--51;
90--52;
90--53;
90--54;
90--55;
90--56;
90--57;
90--58;
90--59;
90--60;
90--61;
90--62;
90--63;
90--64;
90--65;
90--66;
90--67;
90--68;
90--69;
90--70;
90--71;
90--72;
90--73;
90--74;
90--75;
90--76;
90--77;
90--78;
90--79;
90--80;
90--81;
90--82;
90--83;
90--84;
90--85;
90--86;
90--87;
90--88;
90--89;
91--51;
91--52;
91--53;
91--54;
91--55;
91--56;
91--57;
91--58;
91--59;
91--60;
91--61;
91--62;
91--63;
91--64;
91--65;
91--66;
91--67;
91--68;
91--69;
91--70;
91--71;
91--72;
91--73;
91--74;
91--75;
91--76;
91--77;
91--78;
91--79;
91--80;
91--81;
91--82;
91--83;
91--84;
91--85;
91--86;
91--87;
91--88;
91--89;
91--90;
92--51;
92--52;
92--53;
92--54;
92--55;
92--56;
92--57;
92--58;
92--59;
92--60;
92--61;
92--62;
92--63;
92--64;
92--65;
92--66;
92--67;
92--68;
92--69;
92--70;
92--71;
92--72;
92--73;
92--74;
92--75;
92--76;
92--77;
92--78;
92--79;
92--80;
92--81;
92--82;
92--83;
92--84;
92--85;
92--86;
92--87;
92--88;
92--89;
92--90;
92--91;
93--51;
93--52;
93--53;
93--54;
93--55;
93--56;
93--57;
93--58;
93--59;
93--60;
93--61;
93--62;
93--63;
93--64;
93--65;
93--66;
93--67;
93--68;
93--69;
93--70;
93--71;
93--72;
93--73;
93--74;
93--75;
93--76;
93--77;
93--78;
93--79;
93--80;
93--81;
93--82;
93--83;
93--84;
93--85;
93--86;
93--87;
93--88;
93--89;
93--90;
93--91;
93--92;
94--51;
94--52;
94--53;
94--54;
94--55;
94--56;
94--57;
94--58;
94--59;
94--60;
94--61;
94--62;
94--63;
94--64;
94--65;
94--66;
94--67;
94--68;
94--69;
94--70;
94--71;
94--72;
94--73;
94--74;
94--75;
94--76;
94--77;
94--78;
94--79;
94--80;
94--81;
94--82;
94--83;
94--84;
94--85;
94--86;
94--87;
94--88;
94--89;
94--90;
94--91;
94--92;
94--93;
95--51;
95--52;
95--53;
95--54;
95--55;
95--56;
95--57;
95--58;
95--59;
95--60;
95--61;
95--62;
95--63;
95--64;
95--65;
95--66;
95--67;
95--68;
95--69;
95--70;
95--71;
95--72;
95--73;
95--74;
95--75;
95--76;
95--77;
95--78;
95--79;
95--80;
95--81;
95--82;
95--83;
95--84;
95--85;
95--86;
95--87;
95--88;
95--89;
95--90;
95--91;
95--92;
95--93;
95--94;
96--51;
96--52;
96--53;
96--54;
96--55;
96--56;
96--57;
96--58;
96--59;
96--60;
96--61;
96--62;
96--63;
96--64;
96--65;
96--66;
96--67;
96--68;
96--69;
96--70;
96--71;
96--72;
96--73;
96--74;
96--75;
96--76;
96--77;
96--78;
96--79;
96--80;
96--81;
96--82;
96--83;
96--84;
96--85;
96--86;
96--87;
96--88;
96--89;
96--90;
96--91;
96--92;
96--93;
96--94;
96--95;
97--51;
97--52;
97--53;
97--54;
97--55;
97--56;
97--57;
97--58;
97--59;
97--60;
97--61;
97--62;
97--63;
97--64;
97--65;
97--66;
97--67;
97--68;
97--69;
97--70;
97--71;
97--72;
97--73;
97--74;
97--75;
97--76;
97--77;
97--78;
97--79;
97--80;
97--81;
97--82;
97--83;
97--84;
97--85;
97--86;
97--87;
97--88;
97--89;
97--90;
97--91;
97--92;
97--93;
97--94;
97--95;
97--96;
98--51;
98--52;
98--53;
98--54;
98--55;
98--56;
98--57;
98--58;
98--59;
98--60;
98--61;
98--62;
98--63;
98--64;
98--65;
98--66;
98--67;
98--68;
98--69;
98--70;
98--71;
98--72;
98--73;
98--74;
98--75;
98--76;
98--77;
98--78;
98--79;
98--80;
98--81;
98--82;
98--83;
98--84;
98--85;
98--86;
98--87;
98--88;
98--89;
98--90;
98--91;
98--92;
98--93;
98--94;
98--95;
98--96;
98--97;
99--51;
99--52;
99--53;
99--54;
99--55;
99--56;
99--57;
99--58;
99--59;
99--60;
99--61;
99--62;
99--63;
99--64;
99--65;
99--66;
99--67;
99--68;
99--69;
99--70;
99--71;
99--72;
99--73;
99--74;
99--75;
99--76;
99--77;
99--78;
99--79;
99--80;
99--81;
99--82;
99--83;
99--84;
99--85;
99--86;
99--87;
99--88;
99--89;
99--90;
99--91;
99--92;
99--93;
99--94;
99--95;
99--96;
99--97;
99--98;
100--51;
100--52;
100--53;
100--54;
100--55;
100--56;
100--57;
100--58;
100--59;
100--60;
100--61;
100--62;
100--63;
100--64;
100--65;
100--66;
100--67;
100--68;
100--69;
100--70;
100--71;
100--72;
100--73;
100--74;
100--75;
100--76;
100--77;
100--78;
100--79;
100--80;
100--81;
100--82;
100--83;
100--84;
100--85;
100--86;
100--87;
100--88;
100--89;
100--90;
100--91;
100--92;
100--93;
100--94;
100--95;
100--96;
100--97;
100--98;
100--99;
101--51;
101--52;
101--53;
101--54;
101--55;
101--56;
101--57;
101--58;
101--59;
101--60;
101--61;
101--62;
101--63;
101--64;
101--65;
101--66;
101--67;
101--68;
101--69;
101--70;
101--71;
101--72;
101--73;
101--74;
101--75;
101--76;
101--77;
101--78;
101--79;
101--80;
101--81;
101--82;
101--83;
101--84;
101--85;
101--86;
101--87;
101--88;
101--89;
101--90;
101--91;
101--92;
101--93;
101--94;
101--95;
101--96;
101--97;
101--98;
101--99;
101--100;
103--102;
104--102;
104--103;
105--102;
105--103;
105--104;
106--102;
106--103;
106--104;
106--105;
107--102;
107--103;
107--104;
107--105;
107--106;
108--102;
108--103;
108--104;
108--105;
108--106;
108--107;
109--102;
109--103;
109--104;
109--105;
109--106;
109--107;
109--108;
110--102;
110--103;
110--104;
110--105;
110--106;
110--107;
110--108;
110--109;
111--102;
111--103;
111--104;
111--105;
111--106;
111--107;
111--108;
111--109;
111--110;
112--102;
112--103;
112--104;
112--105;
112--106;
112--107;
112--108;
112--109;
112--110;
112--111;
113--102;
113--103;
113--104;
113--105;
113--106;
113--107;
113--108;
113--109;
113--110;
113--111;
113--112;
114--102;
114--103;
114--104;
114--105;
114--106;
114--107;
114--108;
114--109;
114--110;
114--111;
114--112;
114--113;
115--102;
115--103;
115--104;
115--105;
115--106;
115--107;
115--108;
115--109;
115--110;
115--111;
115--112;
115--113;
115--114;
116--102;
116--103;
116--104;
116--105;
116--106;
116--107;
116--108;
116--109;
116--110;
116--111;
116--112;
116--113;
116--114;
116--115;
117--102;
117--103;
117--104;
117--105;
117--106;
117--107;
117--108;
117--109;
117--110;
117--111;
117--112;
117--113;
117--114;
117--115;
117--116;
118--102;
118--103;
118--104;
118--105;
118--106;
118--107;
118--108;
118--109;
118--110;
118--111;
118--112;
118--113;
118--114;
118--115;
118--116;
118--117;
119--102;
119--103;
119--104;
119--105;
119--106;
119--107;
119--108;
119--109;
119--110;
119--111;
119--112;
119--113;
119--114;
119--115;
119--116;
119--117;
119--118;
120--102;
120--103;
120--104;
120--105;
120--106;
120--107;
120--108;
120--109;
120--110;
120--111;
120--112;
120--113;
120--114;
120--115;
120--116;
120--117;
120--118;
120--119;
121--102;
121--103;
121--104;
121--105;
121--106;
121--107;
121--108;
121--109;
121--110;
121--111;
121--112;
121--113;
121--114;
121--115;
121--116;
121--117;
121--118;
121--119;
121--120;
122--102;
122--103;
122--104;
122--105;
122--106;
122--107;
122--108;
122--109;
122--110;
122--111;
122--112;
122--113;
122--114;
122--115;
122--116;
122--117;
122--118;
122--119;
122--120;
122--121;
123--102;
123--103;
123--104;
123--105;
123--106;
123--107;
123--108;
123--109;
123--110;
123--111;
123--112;
123--113;
123--114;
123--115;
123--116;
123--117;
123--118;
123--119;
123--120;
123--121;
123--122;
124--102;
124--103;
124--104;
124--105;
124--106;
124--107;
124--108;
124--109;
124--110;
124--111;
124--112;
124--113;
124--114;
124--115;
124--116;
124--117;
124--118;
124--119;
124--120;
124--121;
124--122;
124--123;
125--102;
125--103;
125--104;
125--105;
125--106;
125--107;
125--108;
125--109;
125--110;
125--111;
125--112;
125--113;
125--114;
125--115;
125--116;
125--117;
125--118;
125--119;
125--120;
125--121;
125--122;
125--123;
125--124;
126--102;
126--103;
126--104;
126--105;
126--106;
126--107;
126--108;
126--109;
126--110;
126--111;
126--112;
126--113;
126--114;
126--115;
126--116;
126--117;
126--118;
126--119;
126--120;
126--121;
126--122;
126--123;
126--124;
126--125;
127--102;
127--103;
127--104;
127--105;
127--106;
127--107;
127--108;
127--109;
127--110;
127--111;
127--112;
127--113;
127--114;
127--115;
127--116;
127--117;
127--118;
127--119;
127--120;
127--121;
127--122;
127--123;
127--124;
127--125;
127--126;
128--102;
128--103;
128--104;
128--105;
128--106;
128--107;
128--108;
128--109;
128--110;
128--111;
128--112;
128--113;
128--114;
128--115;
128--116;
128--117;
128--118;
128--119;
128--120;
128--121;
128--122;
128--123;
128--124;
128--125;
128--126;
128--127;
129--102;
129--103;
129--104;
129--105;
129--106;
129--107;
129--108;
129--109;
129--110;
129--111;
129--112;
129--113;
129--114;
129--115;
129--116;
129--117;
129--118;
129--119;
129--120;
129--121;
129--122;
129--123;
129--124;
129--125;
129--126;
129--127;
129--128;
130--102;
130--103;
130--104;
130--105;
130--106;
130--107;
130--108;
130--109;
130--110;
130--111;
130--112;
130--113;
130--114;
130--115;
130--116;
130--117;
130--118;
130--119;
130--120;
130--121;
130--122;
130--123;
130--124;
130--125;
130--126;
130--127;
130--128;
130--129;
131--102;
131--103;
131--104;
131--105;
131--106;
131--107;
131--108;
131--109;
131--110;
131--111;
131--112;
131--113;
131--114;
131--115;
131--116;
131--117;
131--118;
131--119;
131--120;
131--121;
131--122;
131--123;
131--124;
131--125;
131--126;
131--127;
131--128;
131--129;
131--130;
132--102;
132--103;
132--104;
132--105;
132--106;
132--107;
132--108;
132--109;
132--110;
132--111;
132--112;
132--113;
132--114;
132--115;
132--116;
132--117;
132--118;
132--119;
132--120;
132--121;
132--122;
132--123;
132--124;
132--125;
132--126;
132--127;
132--128;
132--129;
132--130;
132--131;
133--102;
133--103;
133--104;
133--105;
133--106;
133--107;
133--108;
133--109;
133--110;
133--111;
133--112;
133--113;
133--114;
133--115;
133--116;
133--117;
133--118;
133--119;
133--120;
133--121;
133--122;
133--123;
133--124;
133--125;
133--126;
133--127;
133--128;
133--129;
133--130;
133--131;
133--132;
134--102;
134--103;
134--104;
134--105;
134--106;
134--107;
134--108;
134--109;
134--110;
134--111;
134--112;
134--113;
134--114;
134--115;
134--116;
134--117;
134--118;
134--119;
134--120;
134--121;
134--122;
134--123;
134--124;
134--125;
134--126;
134--127;
134--128;
134--129;
134--130;
134--131;
134--132;
134--133;
135--102;
135--103;
135--104;
135--105;
135--106;
135--107;
135--108;
135--109;
135--110;
135--111;
135--112;
135--113;
135--114;
135--115;
135--116;
135--117;
135--118;
135--119;
135--120;
135--121;
135--122;
135--123;
135--124;
135--125;
135--126;
135--127;
135--128;
135--129;
135--130;
135--131;
135--132;
135--133;
135--134;
136--102;
136--103;
136--104;
136--105;
136--106;
136--107;
136--108;
136--109;
136--110;
136--111;
136--112;
136--113;
136--114;
136--115;
136--116;
136--117;
136--118;
136--119;
136--120;
136--121;
136--122;
136--123;
136--124;
136--125;
136--126;
136--127;
136--128;
136--129;
136--130;
136--131;
136--132;
136--133;
136--134;
136--135;
137--102;
137--103;
137--104;
137--105;
137--106;
137--107;
137--108;
137--109;
137--110;
137--111;
137--112;
137--113;
137--114;
137--115;
137--116;
137--117;
137--118;
137--119;
137--120;
137--121;
137--122;
137--123;
137--124;
137--125;
137--126;
137--127;
137--128;
137--129;
137--130;
137--131;
137--132;
137--133;
137--134;
137--135;
137--136;
138--102;
138--103;
138--104;
138--105;
138--106;
138--107;
138--108;
138--109;
138--110;
138--111;
138--112;
138--113;
138--114;
138--115;
138--116;
138--117;
138--118;
138--119;
138--120;
138--121;
138--122;
138--123;
138--124;
138--125;
138--126;
138--127;
138--128;
138--129;
138--130;
138--131;
138--132;
138--133;
138--134;
138--135;
138--136;
138--137;
139--102;
139--103;
139--104;
139--105;
139--106;
139--107;
139--108;
139--109;
139--110;
139--111;
139--112;
139--113;
139--114;
139--115;
139--116;
139--117;
139--118;
139--119;
139--120;
139--121;
139--122;
139--123;
139--124;
139--125;
139--126;
139--127;
139--128;
139--129;
139--130;
139--131;
139--132;
139--133;
139--134;
139--135;
139--136;
139--137;
139--138;
140--102;
140--103;
140--104;
140--105;
140--106;
140--107;
140--108;
140--109;
140--110;
140--111;
140--112;
140--113;
140--114;
140--115;
140--116;
140--117;
140--118;
140--119;
140--120;
140--121;
140--122;
140--123;
140--124;
140--125;
140--126;
140--127;
140--128;
140--129;
140--130;
140--131;
140--132;
140--133;
140--134;
140--135;
140--136;
140--137;
140--138;
140--139;
141--102;
141--103;
141--104;
141--105;
141--106;
141--107;
141--108;
141--109;
141--110;
141--111;
141--112;
141--113;
141--114;
141--115;
141--116;
141--117;
141--118;
141--119;
141--120;
141--121;
141--122;
141--123;
141--124;
141--125;
141--126;
141--127;
141--128;
141--129;
141--130;
141--131;
141--132;
141--133;
141--134;
141--135;
141--136;
141--137;
141--138;
141--139;
141--140;
142--102;
142--103;
142--104;
142--105;
142--106;
142--107;
142--108;
142--109;
142--110;
142--111;
142--112;
142--113;
142--114;
142--115;
142--116;
142--117;
142--118;
142--119;
142--120;
142--121;
142--122;
142--123;
142--124;
142--125;
142--126;
142--127;
142--128;
142--129;
142--130;
142--131;
142--132;
142--133;
142--134;
142--135;
142--136;
142--137;
142--138;
142--139;
142--140;
142--141;
143--102;
143--103;
143--104;
143--105;
143--106;
143--107;
143--108;
143--109;
143--110;
143--111;
143--112;
143--113;
143--114;
143--115;
143--116;
143--117;
143--118;
143--119;
143--120;
143--121;
143--122;
143--123;
143--124;
143--125;
143--126;
143--127;
143--128;
143--129;
143--130;
143--131;
143--132;
143--133;
143--134;
143--135;
143--136;
143--137;
143--138;
143--139;
143--140;
143--141;
143--142;
144--102;
144--103;
144--104;
144--105;
144--106;
144--107;
144--108;
144--109;
144--110;
144--111;
144--112;
144--113;
144--114;
144--115;
144--116;
144--117;
144--118;
144--119;
144--120;
144--121;
144--122;
144--123;
144--124;
144--125;
144--126;
144--127;
144--128;
144--129;
144--130;
144--131;
144--132;
144--133;
144--134;
144--135;
144--136;
144--137;
144--138;
144--139;
144--140;
144--141;
144--142;
144--143;
145--102;
145--103;
145--104;
145--105;
145--106;
145--107;
145--108;
145--109;
145--110;
145--111;
145--112;
145--113;
145--114;
145--115;
145--116;
145--117;
145--118;
145--119;
145--120;
145--121;
145--122;
145--123;
145--124;
145--125;
145--126;
145--127;
145--128;
145--129;
145--130;
145--131;
145--132;
145--133;
145--134;
145--135;
145--136;
145--137;
145--138;
145--139;
145--140;
145--141;
145--142;
145--143;
145--144;
146--102;
146--103;
146--104;
146--105;
146--106;
146--107;
146--108;
146--109;
146--110;
146--111;
146--112;
146--113;
146--114;
146--115;
146--116;
146--117;
146--118;
146--119;
146--120;
146--121;
146--122;
146--123;
146--124;
146--125;
146--126;
146--127;
146--128;
146--129;
146--130;
146--131;
146--132;
146--133;
146--134;
146--135;
146--136;
146--137;
146--138;
146--139;
146--140;
146--141;
146--142;
146--143;
146--144;
146--145;
147--102;
147--103;
147--104;
147--105;
147--106;
147--107;
147--108;
147--109;
147--110;
147--111;
147--112;
147--113;
147--114;
147--115;
147--116;
147--117;
147--118;
147--119;
147--120;
147--121;
147--122;
147--123;
147--124;
147--125;
147--126;
147--127;
147--128;
147--129;
147--130;
147--131;
147--132;
147--133;
147--134;
147--135;
147--136;
147--137;
147--138;
147--139;
147--140;
147--141;
147--142;
147--143;
147--144;
147--145;
147--146;
148--102;
148--103;
148--104;
148--105;
148--106;
148--107;
148--108;
148--109;
148--110;
148--111;
148--112;
148--113;
148--114;
148--115;
148--116;
148--117;
148--118;
148--119;
148--120;
148--121;
148--122;
148--123;
148--124;
148--125;
148--126;
148--127;
148--128;
148--129;
148--130;
148--131;
148--132;
148--133;
148--134;
148--135;
148--136;
148--137;
148--138;
148--139;
148--140;
148--141;
148--142;
148--143;
148--144;
148--145;
148--146;
148--147;
149--102;
149--103;
149--104;
149--105;
149--106;
149--107;
149--108;
149--109;
149--110;
149--111;
149--112;
149--113;
149--114;
149--115;
149--116;
149--117;
149--118;
149--119;
149--120;
149--121;
149--122;
149--123;
149--124;
149--125;
149--126;
149--127;
149--128;
149--129;
149--130;
149--131;
149--132;
149--133;
149--134;
149--135;
149--136;
149--137;
149--138;
149--139;
149--140;
149--141;
149--142;
149--143;
149--144;
149--145;
149--146;
149--147;
149--148;
150--102;
150--103;
150--104;
150--105;
150--106;
150--107;
150--108;
150--109;
150--110;
150--111;
150--112;
150--113;
150--114;
150--115;
150--116;
150--117;
150--118;
150--119;
150--120;
150--121;
150--122;
150--123;
150--124;
150--125;
150--126;
150--127;
150--128;
150--129;
150--130;
150--131;
150--132;
150--133;
150--134;
150--135;
150--136;
150--137;
150--138;
150--139;
150--140;
150--141;
150--142;
150--143;
150--144;
150--145;
150--146;
150--147;
150--148;
150--149;
151--102;
151--103;
151--104;
151--105;
151--106;
151--107;
151--108;
151--109;
151--110;
151--111;
151--112;
151--113;
151--114;
151--115;
151--116;
151--117;
151--118;
151--119;
151--120;
151--121;
151--122;
151--123;
151--124;
151--125;
151--126;
151--127;
151--128;
151--129;
151--130;
151--131;
151--132;
151--133;
151--134;
151--135;
151--136;
151--137;
151--138;
151--139;
151--140;
151--141;
151--142;
151--143;
151--144;
151--145;
151--146;
151--147;
151--148;
151--149;
151--150;
152--102;
152--103;
152--104;
152--105;
152--106;
152--107;
152--108;
152--109;
152--110;
152--111;
152--112;
152--113;
152--114;
152--115;
152--116;
152--117;
152--118;
152--119;
152--120;
152--121;
152--122;
152--123;
152--124;
152--125;
152--126;
152--127;
152--128;
152--129;
152--130;
152--131;
152--132;
152--133;
152--134;
152--135;
152--136;
152--137;
152--138;
152--139;
152--140;
152--141;
152--142;
152--143;
152--144;
152--145;
152--146;
152--147;
152--148;
152--149;
152--150;
152--151;
154--153;
155--153;
155--154;
156--153;
156--154;
156--155;
157--153;
157--154;
157--155;
157--156;
158--153;
158--154;
158--155;
158--156;
158--157;
159--153;
159--154;
159--155;
159--156;
159--157;
159--158;
160--153;
160--154;
160--155;
160--156;
160--157;
160--158;
160--159;
161--153;
161--154;
161--155;
161--156;
161--157;
161--158;
161--159;
161--160;
162--153;
162--154;
162--155;
162--156;
162--157;
162--158;
162--159;
162--160;
162--161;
163--153;
163--154;
163--155;
163--156;
163--157;
163--158;
163--159;
163--160;
163--161;
163--162;
164--153;
164--154;
164--155;
164--156;
164--157;
164--158;
164--159;
164--160;
164--161;
164--162;
164--163;
165--153;
165--154;
165--155;
165--156;
165--157;
165--158;
165--159;
165--160;
165--161;
165--162;
165--163;
165--164;
166--153;
166--154;
166--155;
166--156;
166--157;
166--158;
166--159;
166--160;
166--161;
166--162;
166--163;
166--164;
166--165;
167--153;
167--154;
167--155;
167--156;
167--157;
167--158;
167--159;
167--160;
167--161;
167--162;
167--163;
167--164;
167--165;
167--166;
168--153;
168--154;
168--155;
168--156;
168--157;
168--158;
168--159;
168--160;
168--161;
168--162;
168--163;
168--164;
168--165;
168--166;
168--167;
169--153;
169--154;
169--155;
169--156;
169--157;
169--158;
169--159;
169--160;
169--161;
169--162;
169--163;
169--164;
169--165;
169--166;
169--167;
169--168;
170--153;
170--154;
170--155;
170--156;
170--157;
170--158;
170--159;
170--160;
170--161;
170--162;
170--163;
170--164;
170--165;
170--166;
170--167;
170--168;
170--169;
171--153;
171--154;
171--155;
171--156;
171--157;
171--158;
171--159;
171--160;
171--161;
171--162;
171--163;
171--164;
171--165;
171--166;
171--167;
171--168;
171--169;
171--170;
172--153;
172--154;
172--155;
172--156;
172--157;
172--158;
172--159;
172--160;
172--161;
172--162;
172--163;
172--164;
172--165;
172--166;
172--167;
172--168;
172--169;
172--170;
172--171;
173--153;
173--154;
173--155;
173--156;
173--157;
173--158;
173--159;
173--160;
173--161;
173--162;
173--163;
173--164;
173--165;
173--166;
173--167;
173--168;
173--169;
173--170;
173--171;
173--172;
174--153;
174--154;
174--155;
174--156;
174--157;
174--158;
174--159;
174--160;
174--161;
174--162;
174--163;
174--164;
174--165;
174--166;
174--167;
174--168;
174--169;
174--170;
174--171;
174--172;
174--173;
175--153;
175--154;
175--155;
175--156;
175--157;
175--158;
175--159;
175--160;
175--161;
175--162;
175--163;
175--164;
175--165;
175--166;
175--167;
175--168;
175--169;
175--170;
175--171;
175--172;
175--173;
175--174;
176--153;
176--154;
176--155;
176--156;
176--157;
176--158;
176--159;
176--160;
176--161;
176--162;
176--163;
176--164;
176--165;
176--166;
176--167;
176--168;
176--169;
176--170;
176--171;
176--172;
176--173;
176--174;
176--175;
177--153;
177--154;
177--155;
177--156;
177--157;
177--158;
177--159;
177--160;
177--161;
177--162;
177--163;
177--164;
177--165;
177--166;
177--167;
177--168;
177--169;
177--170;
177--171;
177--172;
177--173;
177--174;
177--175;
177--176;
178--153;
178--154;
178--155;
178--156;
178--157;
178--158;
178--159;
178--160;
178--161;
178--162;
178--163;
178--164;
178--165;
178--166;
178--167;
178--168;
178--169;
178--170;
178--171;
178--172;
178--173;
178--174;
178--175;
178--176;
178--177;
179--153;
179--154;
179--155;
179--156;
179--157;
179--158;
179--159;
179--160;
179--161;
179--162;
179--163;
179--164;
179--165;
179--166;
179--167;
179--168;
179--169;
179--170;
179--171;
179--172;
179--173;
179--174;
179--175;
179--176;
179--177;
179--178;
180--153;
180--154;
180--155;
180--156;
180--157;
180--158;
180--159;
180--160;
180--161;
180--162;
180--163;
180--164;
180--165;
180--166;
180--167;
180--168;
180--169;
180--170;
180--171;
180--172;
180--173;
180--174;
180--175;
180--176;
180--177;
180--178;
180--179;
181--153;
181--154;
181--155;
181--156;
181--157;
181--158;
181--159;
181--160;
181--161;
181--162;
181--163;
181--164;
181--165;
181--166;
181--167;
181--168;
181--169;
181--170;
181--171;
181--172;
181--173;
181--174;
181--175;
181--176;
181--177;
181--178;
181--179;
181--180;
182--153;
182--154;
182--155;
182--156;
182--157;
182--158;
182--159;
182--160;
182--161;
182--162;
182--163;
182--164;
182--165;
182--166;
182--167;
182--168;
182--169;
182--170;
182--171;
182--172;
182--173;
182--174;
182--175;
182--176;
182--177;
182--178;
182--179;
182--180;
182--181;
183--153;
183--154;
183--155;
183--156;
183--157;
183--158;
183--159;
183--160;
183--161;
183--162;
183--163;
183--164;
183--165;
183--166;
183--167;
183--168;
183--169;
183--170;
183--171;
183--172;
183--173;
183--174;
183--175;
183--176;
183--177;
183--178;
183--179;
183--180;
183--181;
183--182;
184--153;
184--154;
184--155;
184--156;
184--157;
184--158;
184--159;
184--160;
184--161;
184--162;
184--163;
184--164;
184--165;
184--166;
184--167;
184--168;
184--169;
184--170;
184--171;
184--172;
184--173;
184--174;
184--175;
184--176;
184--177;
184--178;
184--179;
184--180;
184--181;
184--182;
184--183;
185--153;
185--154;
185--155;
185--156;
185--157;
185--158;
185--159;
185--160;
185--161;
185--162;
185--163;
185--164;
185--165;
185--166;
185--167;
185--168;
185--169;
185--170;
185--171;
185--172;
185--173;
185--174;
185--175;
185--176;
185--177;
185--178;
185--179;
185--180;
185--181;
185--182;
185--183;
185--184;
186--153;
186--154;
186--155;
186--156;
186--157;
186--158;
186--159;
186--160;
186--161;
186--162;
186--163;
186--164;
186--165;
186--166;
186--167;
186--168;
186--169;
186--170;
186--171;
186--172;
186--173;
186--174;
186--175;
186--176;
186--177;
186--178;
186--179;
186--180;
186--181;
186--182;
186--183;
186--184;
186--185;
187--153;
187--154;
187--155;
187--156;
187--157;
187--158;
187--159;
187--160;
187--161;
187--162;
187--163;
187--164;
187--165;
187--166;
187--167;
187--168;
187--169;
187--170;
187--171;
187--172;
187--173;
187--174;
187--175;
187--176;
187--177;
187--178;
187--179;
187--180;
187--181;
187--182;
187--183;
187--184;
187--185;
187--186;
188--153;
188--154;
188--155;
188--156;
188--157;
188--158;
188--159;
188--160;
188--161;
188--162;
188--163;
188--164;
188--165;
188--166;
188--167;
188--168;
188--169;
188--170;
188--171;
188--172;
188--173;
188--174;
188--175;
188--176;
188--177;
188--178;
188--179;
188--180;
188--181;
188--182;
188--183;
188--184;
188--185;
188--186;
188--187;
189--153;
189--154;
189--155;
189--156;
189--157;
189--158;
189--159;
189--160;
189--161;
189--162;
189--163;
189--164;
189--165;
189--166;
189--167;
189--168;
189--169;
189--170;
189--171;
189--172;
189--173;
189--174;
189--175;
189--176;
189--177;
189--178;
189--179;
189--180;
189--181;
189--182;
189--183;
189--184;
189--185;
189--186;
189--187;
189--188;
190--153;
190--154;
190--155;
190--156;
190--157;
190--158;
190--159;
190--160;
190--161;
190--162;
190--163;
190--164;
190--165;
190--166;
190--167;
190--168;
190--169;
190--170;
190--171;
190--172;
190--173;
190--174;
190--175;
190--176;
190--177;
190--178;
190--179;
190--180;
190--181;
190--182;
190--183;
190--184;
190--185;
190--186;
190--187;
190--188;
190--189;
191--153;
191--154;
191--155;
191--156;
191--157;
191--158;
191--159;
191--160;
191--161;
191--162;
191--163;
191--164;
191--165;
191--166;
191--167;
191--168;
191--169;
191--170;
191--171;
191--172;
191--173;
191--174;
191--175;
191--176;
191--177;
191--178;
191--179;
191--180;
191--181;
191--182;
191--183;
191--184;
191--185;
191--186;
191--187;
191--188;
191--189;
191--190;
192--153;
192--154;
192--155;
192--156;
192--157;
192--158;
192--159;
192--160;
192--161;
192--162;
192--163;
192--164;
192--165;
192--166;
192--167;
192--168;
192--169;
192--170;
192--171;
192--172;
192--173;
192--174;
192--175;
192--176;
192--177;
192--178;
192--179;
192--180;
192--181;
192--182;
192--183;
192--184;
192--185;
192--186;
192--187;
192--188;
192--189;
192--190;
192--191;
193--153;
193--154;
193--155;
193--156;
193--157;
193--158;
193--159;
193--160;
193--161;
193--162;
193--163;
193--164;
193--165;
193--166;
193--167;
193--168;
193--169;
193--170;
193--171;
193--172;
193--173;
193--174;
193--175;
193--176;
193--177;
193--178;
193--179;
193--180;
193--181;
193--182;
193--183;
193--184;
193--185;
193--186;
193--187;
193--188;
193--189;
193--190;
193--191;
193--192;
194--153;
194--154;
194--155;
194--156;
194--157;
194--158;
194--159;
194--160;
194--161;
194--162;
194--163;
194--164;
194--165;
194--166;
194--167;
194--168;
194--169;
194--170;
194--171;
194--172;
194--173;
194--174;
194--175;
194--176;
194--177;
194--178;
194--179;
194--180;
194--181;
194--182;
194--183;
194--184;
194--185;
194--186;
194--187;
194--188;
194--189;
194--190;
194--191;
194--192;
194--193;
195--153;
195--154;
195--155;
195--156;
195--157;
195--158;
195--159;
195--160;
195--161;
195--162;
195--163;
195--164;
195--165;
195--166;
195--167;
195--168;
195--169;
195--170;
195--171;
195--172;
195--173;
195--174;
195--175;
195--176;
195--177;
195--178;
195--179;
195--180;
195--181;
195--182;
195--183;
195--184;
195--185;
195--186;
195--187;
195--188;
195--189;
195--190;
195--191;
195--192;
195--193;
195--194;
196--153;
196--154;
196--155;
196--156;
196--157;
196--158;
196--159;
196--160;
196--161;
196--162;
196--163;
196--164;
196--165;
196--166;
196--167;
196--168;
196--169;
196--170;
196--171;
196--172;
196--173;
196--174;
196--175;
196--176;
196--177;
196--178;
196--179;
196--180;
196--181;
196--182;
196--183;
196--184;
196--185;
196--186;
196--187;
196--188;
196--189;
196--190;
196--191;
196--192;
196--193;
196--194;
196--195;
197--153;
197--154;
197--155;
197--156;
197--157;
197--158;
197--159;
197--160;
197--161;
197--162;
197--163;
197--164;
197--165;
197--166;
197--167;
197--168;
197--169;
197--170;
197--171;
197--172;
197--173;
197--174;
197--175;
197--176;
197--177;
197--178;
197--179;
197--180;
197--181;
197--182;
197--183;
197--184;
197--185;
197--186;
197--187;
197--188;
197--189;
197--190;
197--191;
197--192;
197--193;
197--194;
197--195;
197--196;
198--153;
198--154;
198--155;
198--156;
198--157;
198--158;
198--159;
198--160;
198--161;
198--162;
198--163;
198--164;
198--165;
198--166;
198--167;
198--168;
198--169;
198--170;
198--171;
198--172;
198--173;
198--174;
198--175;
198--176;
198--177;
198--178;
198--179;
198--180;
198--181;
198--182;
198--183;
198--184;
198--185;
198--186;
198--187;
198--188;
198--189;
198--190;
198--191;
198--192;
198--193;
198--194;
198--195;
198--196;
198--197;
199--153;
199--154;
199--155;
199--156;
199--157;
199--158;
199--159;
199--160;
199--161;
199--162;
199--163;
199--164;
199--165;
199--166;
199--167;
199--168;
199--169;
199--170;
199--171;
199--172;
199--173;
199--174;
199--175;
199--176;
199--177;
199--178;
199--179;
199--180;
199--181;
199--182;
199--183;
199--184;
199--185;
199--186;
199--187;
199--188;
199--189;
199--190;
199--191;
199--192;
199--193;
199--194;
199--195;
199--196;
199--197;
199--198;
