graph G {
1;
102;
27;
39;
22;
4;
35;
71;
78;
3;
7;
15;
11;
74;
1--2;
1--6;
1--10;
1--12;
1--13;
1--17;
1--21;
1--23;
1--25;
1--28;
1--29;
1--31;
1--43;
1--45;
1--46;
1--50;
1--55;
1--60;
1--61;
1--62;
1--65;
1--77;
1--83;
1--89;
1--91;
1--92;
1--96;
1--98;
1--101;
1--103;
1--105;
1--107;
1--108;
1--113;
1--114;
1--119;
1--122;
1--124;
1--126;
1--138;
2--18;
2--32;
2--33;
2--42;
2--67;
2--72;
2--76;
2--85;
2--86;
2--93;
2--104;
2--118;
2--125;
2--130;
2--135;
2--142;
6--8;
6--9;
6--19;
6--26;
6--34;
6--47;
6--48;
6--52;
6--53;
6--73;
6--88;
6--100;
6--109;
6--116;
6--127;
6--128;
6--134;
6--149;
12--36;
12--58;
12--63;
12--148;
3--21;
15--21;
21--54;
21--57;
21--64;
21--70;
21--80;
21--81;
21--84;
21--99;
21--110;
21--129;
21--131;
21--133;
21--136;
21--146;
28--106;
31--56;
27--46;
39--46;
46--51;
46--68;
22--55;
55--79;
55--97;
55--115;
55--137;
4--83;
35--83;
71--83;
78--83;
83--147;
7--96;
96--102;
11--119;
74--119;
